…
서울시의 전체 노인 시설 가운데 경로당 비율은 88.47%를 차지해 가장 높았다. 노인복지관은 2%, 노인교실은 9.53%에 불과하다. 그렇다면 가장 높은 비율을 차지하는 경로당은 구 별로 다르게 분포되어 있을까?

구별 시설 수 비교
=================

``` r
data2<-data[-c(1),]
data_total<-data2 %>% arrange(desc(total)) %>% 
  select(1,2)
data_total
```

    ## # A tibble: 25 x 2
    ##        area total
    ##       <chr> <dbl>
    ##  1   노원구   260
    ##  2   강서구   239
    ##  3   구로구   210
    ##  4 영등포구   202
    ##  5   양천구   193
    ##  6   강남구   193
    ##  7   송파구   181
    ##  8   성동구   172
    ##  9   성북구   172
    ## 10   은평구   170
    ## # ... with 15 more rows

우선 노인 여가시설의 수는 노원구가 가장 많았으며, 강서구, 구로구 순으로 이어졌다.

구별 여가시설 비율
==================

``` r
area_total<-data2 %>% group_by(area) %>% 
  mutate(t_pct=round(total/3808*100,digits=2)) %>% 
  arrange(desc(t_pct)) %>% select(area,t_pct)
area_total
```

    ## # A tibble: 25 x 2
    ## # Groups:   area [25]
    ##        area t_pct
    ##       <chr> <dbl>
    ##  1   노원구  6.83
    ##  2   강서구  6.28
    ##  3   구로구  5.51
    ##  4 영등포구  5.30
    ##  5   양천구  5.07
    ##  6   강남구  5.07
    ##  7   송파구  4.75
    ##  8   성동구  4.52
    ##  9   성북구  4.52
    ## 10   은평구  4.46
    ## # ... with 15 more rows

이를 비율로 나타내면 서울시 내의 노인 시설 분포비율을 구 별로 비교해 볼 수 있다. 이번엔 경로당 비율을 비교해보자.

구별 경로당 비율
================

``` r
area_center<-data2 %>% group_by(area) %>% 
  mutate(s_pct=round(seniorcenter/3369*100,digits=2)) %>% 
  arrange(desc(s_pct)) %>% select(area,s_pct)
area_center
```

    ## # A tibble: 25 x 2
    ## # Groups:   area [25]
    ##        area s_pct
    ##       <chr> <dbl>
    ##  1   노원구  7.24
    ##  2   강서구  6.32
    ##  3   구로구  5.61
    ##  4 영등포구  5.14
    ##  5   강남구  4.87
    ##  6   양천구  4.84
    ##  7   송파구  4.84
    ##  8   성북구  4.72
    ##  9   성동구  4.57
    ## 10   마포구  4.45
    ## # ... with 15 more rows
…
